{
    "plays": [
        {
            "__play_name": "Simple Backup",
            "name": "Simple Backup",
            "pattern": "junos,backup_servers",
            "play": "Simple Backup",
            "play_pattern": "junos,backup_servers",
            "play_uuid": "2653eb90-4b31-355f-cfc9-000000000007",
            "playbook": "/home/tdubiel/code/juniper-backup/juniper_backup.yml",
            "playbook_uuid": "a3349b85-dfad-4b43-bd1a-d6b149f7e7b7",
            "tasks": [
                {
                    "__changed": true,
                    "__duration": "1s",
                    "__host": "18.220.10.18",
                    "__number": 0,
                    "__result": "Ok",
                    "__task": "Backup Juniper Router Configuration",
                    "__task_action": "junipernetworks.junos.junos_config",
                    "duration": 1.483915,
                    "end": "2023-05-15T16:51:32.083537",
                    "event_loop": null,
                    "host": "18.220.10.18",
                    "play": "Simple Backup",
                    "play_pattern": "junos,backup_servers",
                    "play_uuid": "2653eb90-4b31-355f-cfc9-000000000007",
                    "playbook": "/home/tdubiel/code/juniper-backup/juniper_backup.yml",
                    "playbook_uuid": "a3349b85-dfad-4b43-bd1a-d6b149f7e7b7",
                    "remote_addr": "18.220.10.18",
                    "res": {
                        "_ansible_no_log": false,
                        "backup_path": "/tmp/backups/18.220.10.18_config.2023-05-15@16:51:32",
                        "changed": true,
                        "date": "2023-05-15",
                        "filename": "18.220.10.18_config.2023-05-15@16:51:32",
                        "invocation": {
                            "module_args": {
                                "backup": true,
                                "backup_options": {
                                    "backup_format": "set",
                                    "dir_path": "/tmp/backups",
                                    "filename": null
                                },
                                "check_commit": false,
                                "comment": "configured by junos_config",
                                "confirm": 0,
                                "confirm_commit": false,
                                "lines": null,
                                "replace": null,
                                "rollback": null,
                                "src": null,
                                "src_format": null,
                                "update": "merge",
                                "zeroize": false
                            }
                        },
                        "shortname": "/tmp/backups/18.220.10.18_config",
                        "time": "16:51:32"
                    },
                    "start": "2023-05-15T16:51:30.599622",
                    "task": "Backup Juniper Router Configuration",
                    "task_action": "junipernetworks.junos.junos_config",
                    "task_args": "",
                    "task_path": "/home/tdubiel/code/juniper-backup/juniper_backup.yml:8",
                    "task_uuid": "2653eb90-4b31-355f-cfc9-000000000009",
                    "uuid": "8399e4b7-b9ea-4e3f-88b3-8e7c3253351e"
                },
                {
                    "__changed": false,
                    "__duration": "0s",
                    "__host": "backup_server",
                    "__number": 1,
                    "__result": "Skipped",
                    "__task": "Backup Juniper Router Configuration",
                    "__task_action": "junipernetworks.junos.junos_config",
                    "duration": 0.011631,
                    "end": "2023-05-15T16:51:30.617246",
                    "event_loop": null,
                    "host": "backup_server",
                    "play": "Simple Backup",
                    "play_pattern": "junos,backup_servers",
                    "play_uuid": "2653eb90-4b31-355f-cfc9-000000000007",
                    "playbook": "/home/tdubiel/code/juniper-backup/juniper_backup.yml",
                    "playbook_uuid": "a3349b85-dfad-4b43-bd1a-d6b149f7e7b7",
                    "remote_addr": "backup_server",
                    "start": "2023-05-15T16:51:30.605615",
                    "task": "Backup Juniper Router Configuration",
                    "task_action": "junipernetworks.junos.junos_config",
                    "task_args": "",
                    "task_path": "/home/tdubiel/code/juniper-backup/juniper_backup.yml:8",
                    "task_uuid": "2653eb90-4b31-355f-cfc9-000000000009",
                    "uuid": "cd23d25c-acca-4801-9636-e2e40032d71f"
                },
                {
                    "__changed": false,
                    "__duration": "0s",
                    "__host": "18.220.10.18",
                    "__number": 2,
                    "__result": "Skipped",
                    "__task": "Copy to Server",
                    "__task_action": "ansible.builtin.copy",
                    "duration": 0.010784,
                    "end": "2023-05-15T16:51:32.098782",
                    "event_loop": null,
                    "host": "18.220.10.18",
                    "play": "Simple Backup",
                    "play_pattern": "junos,backup_servers",
                    "play_uuid": "2653eb90-4b31-355f-cfc9-000000000007",
                    "playbook": "/home/tdubiel/code/juniper-backup/juniper_backup.yml",
                    "playbook_uuid": "a3349b85-dfad-4b43-bd1a-d6b149f7e7b7",
                    "remote_addr": "18.220.10.18",
                    "start": "2023-05-15T16:51:32.087998",
                    "task": "Copy to Server",
                    "task_action": "ansible.builtin.copy",
                    "task_args": "",
                    "task_path": "/home/tdubiel/code/juniper-backup/juniper_backup.yml:15",
                    "task_uuid": "2653eb90-4b31-355f-cfc9-00000000000a",
                    "uuid": "51063699-a720-4d60-8587-5f966b91919c"
                },
                {
                    "__changed": true,
                    "__duration": "4s",
                    "__host": "backup_server",
                    "__number": 3,
                    "__result": "Ok",
                    "__task": "Copy to Server",
                    "__task_action": "ansible.builtin.copy",
                    "duration": 3.863891,
                    "end": "2023-05-15T16:51:35.958166",
                    "event_loop": null,
                    "host": "backup_server",
                    "play": "Simple Backup",
                    "play_pattern": "junos,backup_servers",
                    "play_uuid": "2653eb90-4b31-355f-cfc9-000000000007",
                    "playbook": "/home/tdubiel/code/juniper-backup/juniper_backup.yml",
                    "playbook_uuid": "a3349b85-dfad-4b43-bd1a-d6b149f7e7b7",
                    "remote_addr": "backup_server",
                    "res": {
                        "_ansible_no_log": false,
                        "ansible_facts": {
                            "discovered_interpreter_python": "/usr/libexec/platform-python"
                        },
                        "changed": true,
                        "checksum": "7ad39d619330b23450c6d729d83f3be4760f1e33",
                        "dest": "/home/ec2-user/Juniper_backups/18.220.10.18_config.2023-05-15@16:51:32",
                        "diff": [],
                        "gid": 1000,
                        "group": "ec2-user",
                        "invocation": {
                            "module_args": {
                                "_original_basename": "18.220.10.18_config.2023-05-15@16:51:32",
                                "attributes": null,
                                "backup": false,
                                "checksum": "7ad39d619330b23450c6d729d83f3be4760f1e33",
                                "content": null,
                                "dest": "/home/ec2-user/Juniper_backups/",
                                "directory_mode": null,
                                "follow": false,
                                "force": true,
                                "group": null,
                                "local_follow": null,
                                "mode": null,
                                "owner": null,
                                "remote_src": null,
                                "selevel": null,
                                "serole": null,
                                "setype": null,
                                "seuser": null,
                                "src": "/home/ec2-user/.ansible/tmp/ansible-tmp-1684169492.7133453-39-115201115677314/source",
                                "unsafe_writes": false,
                                "validate": null
                            }
                        },
                        "md5sum": "9687d5507a846c6609c1eabccadf8cbb",
                        "mode": "0664",
                        "owner": "ec2-user",
                        "secontext": "unconfined_u:object_r:user_home_t:s0",
                        "size": 1189,
                        "src": "/home/ec2-user/.ansible/tmp/ansible-tmp-1684169492.7133453-39-115201115677314/source",
                        "state": "file",
                        "uid": 1000
                    },
                    "start": "2023-05-15T16:51:32.094275",
                    "task": "Copy to Server",
                    "task_action": "ansible.builtin.copy",
                    "task_args": "",
                    "task_path": "/home/tdubiel/code/juniper-backup/juniper_backup.yml:15",
                    "task_uuid": "2653eb90-4b31-355f-cfc9-00000000000a",
                    "uuid": "a21faa15-0ee4-4c00-93d2-8143210cb23a"
                },
                {
                    "__changed": false,
                    "__duration": "0s",
                    "__host": "18.220.10.18",
                    "__number": 4,
                    "__result": "Skipped",
                    "__task": "Verify Juniper_backups directory",
                    "__task_action": "ansible.builtin.shell",
                    "duration": 0.011805,
                    "end": "2023-05-15T16:51:35.974209",
                    "event_loop": null,
                    "host": "18.220.10.18",
                    "play": "Simple Backup",
                    "play_pattern": "junos,backup_servers",
                    "play_uuid": "2653eb90-4b31-355f-cfc9-000000000007",
                    "playbook": "/home/tdubiel/code/juniper-backup/juniper_backup.yml",
                    "playbook_uuid": "a3349b85-dfad-4b43-bd1a-d6b149f7e7b7",
                    "remote_addr": "18.220.10.18",
                    "start": "2023-05-15T16:51:35.962404",
                    "task": "Verify Juniper_backups directory",
                    "task_action": "ansible.builtin.shell",
                    "task_args": "",
                    "task_path": "/home/tdubiel/code/juniper-backup/juniper_backup.yml:21",
                    "task_uuid": "2653eb90-4b31-355f-cfc9-00000000000b",
                    "uuid": "77c4f6da-5693-4dcf-889a-b32ffdb411d2"
                },
                {
                    "__changed": true,
                    "__duration": "1s",
                    "__host": "backup_server",
                    "__number": 5,
                    "__result": "Ok",
                    "__task": "Verify Juniper_backups directory",
                    "__task_action": "ansible.builtin.shell",
                    "duration": 1.329748,
                    "end": "2023-05-15T16:51:37.298675",
                    "event_loop": null,
                    "host": "backup_server",
                    "play": "Simple Backup",
                    "play_pattern": "junos,backup_servers",
                    "play_uuid": "2653eb90-4b31-355f-cfc9-000000000007",
                    "playbook": "/home/tdubiel/code/juniper-backup/juniper_backup.yml",
                    "playbook_uuid": "a3349b85-dfad-4b43-bd1a-d6b149f7e7b7",
                    "remote_addr": "backup_server",
                    "res": {
                        "_ansible_no_log": false,
                        "changed": true,
                        "cmd": "ls",
                        "delta": "0:00:00.004233",
                        "end": "2023-05-15 16:51:37.145704",
                        "invocation": {
                            "module_args": {
                                "_raw_params": "ls",
                                "_uses_shell": true,
                                "argv": null,
                                "chdir": null,
                                "creates": null,
                                "executable": null,
                                "removes": null,
                                "stdin": null,
                                "stdin_add_newline": true,
                                "strip_empty_ends": true,
                                "warn": false
                            }
                        },
                        "msg": "",
                        "rc": 0,
                        "start": "2023-05-15 16:51:37.141471",
                        "stderr": "",
                        "stderr_lines": [],
                        "stdout": "bin\nconfig\nkafka\nlibs\nLICENSE\nlicenses\nlogs\nnohup.out\nNOTICE\nsite-docs\ntelegraf.toml\ntelem.html\nzookeeper",
                        "stdout_lines": [
                            "bin",
                            "config",
                            "kafka",
                            "libs",
                            "LICENSE",
                            "licenses",
                            "logs",
                            "nohup.out",
                            "NOTICE",
                            "site-docs",
                            "telegraf.toml",
                            "telem.html",
                            "zookeeper"
                        ]
                    },
                    "start": "2023-05-15T16:51:35.968927",
                    "task": "Verify Juniper_backups directory",
                    "task_action": "ansible.builtin.shell",
                    "task_args": "",
                    "task_path": "/home/tdubiel/code/juniper-backup/juniper_backup.yml:21",
                    "task_uuid": "2653eb90-4b31-355f-cfc9-00000000000b",
                    "uuid": "fdbaccc0-edc9-4e41-a4e0-165c7dade49e"
                }
            ],
            "uuid": "2653eb90-4b31-355f-cfc9-000000000007"
        }
    ],
    "settings_entries": {
        "ansible-navigator": {
            "ansible": {
                "cmdline": "-v",
                "config": {
                    "help": false
                },
                "doc": {
                    "help": false,
                    "plugin": {
                        "type": "module"
                    }
                },
                "inventory": {
                    "entries": [
                        "/home/tdubiel/code/juniper-backup/hosts.yml"
                    ],
                    "help": false
                },
                "playbook": {
                    "help": false,
                    "path": "/home/tdubiel/code/juniper-backup/juniper_backup.yml"
                }
            },
            "ansible-builder": {
                "help": false,
                "workdir": "/home/tdubiel/code/juniper-backup"
            },
            "app": "run",
            "collection-doc-cache-path": "/home/tdubiel/.cache/ansible-navigator/collection_doc_cache.db",
            "color": {
                "enable": true,
                "osc4": true
            },
            "editor": {
                "command": "/usr/bin/nano {filename}",
                "console": true
            },
            "exec": {
                "command": "/bin/bash",
                "shell": true
            },
            "execution-environment": {
                "container-engine": "podman",
                "enabled": true,
                "image": "registry.gitlab.com/tdubiel1/network-ee:latest",
                "pull": {
                    "policy": "tag"
                },
                "volume-mounts": [
                    {
                        "dest": "/home/tdubiel",
                        "src": "/home/tdubiel"
                    }
                ]
            },
            "images": {
                "details": [
                    "everything"
                ]
            },
            "logging": {
                "append": true,
                "file": "/home/tdubiel/code/juniper-backup/ansible-navigator.log",
                "level": "debug"
            },
            "mode": "stdout",
            "playbook-artifact": {
                "enable": true,
                "save-as": "artifacts/{playbook_name}-artifact-{time_stamp}.json"
            },
            "settings": {
                "effective": false,
                "sample": false,
                "schema": "json",
                "sources": false
            },
            "time-zone": "UTC"
        }
    },
    "settings_sources": {
        "ansible-navigator.ansible-builder.help": "Defaults",
        "ansible-navigator.ansible-builder.workdir": "Defaults",
        "ansible-navigator.ansible-lint.config": "Not set",
        "ansible-navigator.ansible-lint.lintables": "Not set",
        "ansible-navigator.ansible-runner.artifact-dir": "Not set",
        "ansible-navigator.ansible-runner.rotate-artifacts-count": "Not set",
        "ansible-navigator.ansible-runner.timeout": "Not set",
        "ansible-navigator.ansible.cmdline": "Command line",
        "ansible-navigator.ansible.config.help": "Defaults",
        "ansible-navigator.ansible.config.path": "Not set",
        "ansible-navigator.ansible.doc.help": "Defaults",
        "ansible-navigator.ansible.doc.plugin.name": "Not set",
        "ansible-navigator.ansible.doc.plugin.type": "Defaults",
        "ansible-navigator.ansible.inventory.entries": "Settings file",
        "ansible-navigator.ansible.inventory.help": "Defaults",
        "ansible-navigator.ansible.playbook.help": "Defaults",
        "ansible-navigator.ansible.playbook.path": "Command line",
        "ansible-navigator.app": "Command line",
        "ansible-navigator.collection-doc-cache-path": "Defaults",
        "ansible-navigator.color.enable": "Defaults",
        "ansible-navigator.color.osc4": "Defaults",
        "ansible-navigator.editor.command": "Defaults",
        "ansible-navigator.editor.console": "Defaults",
        "ansible-navigator.exec.command": "Defaults",
        "ansible-navigator.exec.shell": "Defaults",
        "ansible-navigator.execution-environment.container-engine": "Settings file",
        "ansible-navigator.execution-environment.container-options": "Not set",
        "ansible-navigator.execution-environment.enabled": "Settings file",
        "ansible-navigator.execution-environment.environment-variables.pass": "Not set",
        "ansible-navigator.execution-environment.environment-variables.set": "Not set",
        "ansible-navigator.execution-environment.image": "Settings file",
        "ansible-navigator.execution-environment.pull.arguments": "Not set",
        "ansible-navigator.execution-environment.pull.policy": "Defaults",
        "ansible-navigator.execution-environment.volume-mounts": "Settings file",
        "ansible-navigator.images.details": "Defaults",
        "ansible-navigator.inventory-columns": "Not set",
        "ansible-navigator.logging.append": "Defaults",
        "ansible-navigator.logging.file": "Defaults",
        "ansible-navigator.logging.level": "Settings file",
        "ansible-navigator.mode": "Command line",
        "ansible-navigator.playbook-artifact.enable": "Defaults",
        "ansible-navigator.playbook-artifact.replay": "Not set",
        "ansible-navigator.playbook-artifact.save-as": "Settings file",
        "ansible-navigator.settings.effective": "Defaults",
        "ansible-navigator.settings.sample": "Defaults",
        "ansible-navigator.settings.schema": "Defaults",
        "ansible-navigator.settings.sources": "Defaults",
        "ansible-navigator.time-zone": "Defaults",
        "settings_file_path": "/home/tdubiel/code/juniper-backup/ansible-navigator.yml",
        "settings_file_source": "Search path"
    },
    "status": "successful",
    "status_color": 10,
    "stdout": [
        "\u001b[0;34mNo config file found; using defaults\u001b[0m",
        "",
        "PLAY [Simple Backup] ***********************************************************",
        "",
        "TASK [Backup Juniper Router Configuration] *************************************",
        "\u001b[0;36mskipping: [backup_server] => {\"changed\": false, \"skip_reason\": \"Conditional result was False\"}\u001b[0m",
        "\u001b[0;33mchanged: [18.220.10.18] => {\"backup_path\": \"/tmp/backups/18.220.10.18_config.2023-05-15@16:51:32\", \"changed\": true, \"date\": \"2023-05-15\", \"filename\": \"18.220.10.18_config.2023-05-15@16:51:32\", \"shortname\": \"/tmp/backups/18.220.10.18_config\", \"time\": \"16:51:32\"}\u001b[0m",
        "",
        "TASK [Copy to Server] **********************************************************",
        "\u001b[0;36mskipping: [18.220.10.18] => {\"changed\": false, \"skip_reason\": \"Conditional result was False\"}\u001b[0m",
        "\u001b[0;33mchanged: [backup_server] => {\"ansible_facts\": {\"discovered_interpreter_python\": \"/usr/libexec/platform-python\"}, \"changed\": true, \"checksum\": \"7ad39d619330b23450c6d729d83f3be4760f1e33\", \"dest\": \"/home/ec2-user/Juniper_backups/18.220.10.18_config.2023-05-15@16:51:32\", \"gid\": 1000, \"group\": \"ec2-user\", \"md5sum\": \"9687d5507a846c6609c1eabccadf8cbb\", \"mode\": \"0664\", \"owner\": \"ec2-user\", \"secontext\": \"unconfined_u:object_r:user_home_t:s0\", \"size\": 1189, \"src\": \"/home/ec2-user/.ansible/tmp/ansible-tmp-1684169492.7133453-39-115201115677314/source\", \"state\": \"file\", \"uid\": 1000}\u001b[0m",
        "",
        "TASK [Verify Juniper_backups directory] ****************************************",
        "\u001b[0;36mskipping: [18.220.10.18] => {\"changed\": false, \"skip_reason\": \"Conditional result was False\"}\u001b[0m",
        "\u001b[0;33mchanged: [backup_server] => {\"changed\": true, \"cmd\": \"ls\", \"delta\": \"0:00:00.004233\", \"end\": \"2023-05-15 16:51:37.145704\", \"msg\": \"\", \"rc\": 0, \"start\": \"2023-05-15 16:51:37.141471\", \"stderr\": \"\", \"stderr_lines\": [], \"stdout\": \"bin\\nconfig\\nkafka\\nlibs\\nLICENSE\\nlicenses\\nlogs\\nnohup.out\\nNOTICE\\nsite-docs\\ntelegraf.toml\\ntelem.html\\nzookeeper\", \"stdout_lines\": [\"bin\", \"config\", \"kafka\", \"libs\", \"LICENSE\", \"licenses\", \"logs\", \"nohup.out\", \"NOTICE\", \"site-docs\", \"telegraf.toml\", \"telem.html\", \"zookeeper\"]}\u001b[0m",
        "",
        "PLAY RECAP *********************************************************************",
        "\u001b[0;33m18.220.10.18\u001b[0m               : \u001b[0;32mok=1   \u001b[0m \u001b[0;33mchanged=1   \u001b[0m unreachable=0    failed=0    \u001b[0;36mskipped=2   \u001b[0m rescued=0    ignored=0   ",
        "\u001b[0;33mbackup_server\u001b[0m              : \u001b[0;32mok=2   \u001b[0m \u001b[0;33mchanged=2   \u001b[0m unreachable=0    failed=0    \u001b[0;36mskipped=1   \u001b[0m rescued=0    ignored=0   "
    ],
    "version": "2.0.0"
}
