{
    "plays": [
        {
            "__play_name": "Simple Backup",
            "name": "Simple Backup",
            "pattern": "junos,backup_servers",
            "play": "Simple Backup",
            "play_pattern": "junos,backup_servers",
            "play_uuid": "ba6d0172-19fe-62fa-4ebf-000000000007",
            "playbook": "/home/tdubiel/code/juniper-backup/juniper_backup.yml",
            "playbook_uuid": "9356ef18-3188-4ede-9e6d-4b16bf8a09e6",
            "tasks": [
                {
                    "__changed": true,
                    "__duration": "2s",
                    "__host": "18.220.10.18",
                    "__number": 0,
                    "__result": "Ok",
                    "__task": "Backup Juniper Router Configuration",
                    "__task_action": "junipernetworks.junos.junos_config",
                    "duration": 1.530016,
                    "end": "2023-05-15T17:09:47.424428",
                    "event_loop": null,
                    "host": "18.220.10.18",
                    "play": "Simple Backup",
                    "play_pattern": "junos,backup_servers",
                    "play_uuid": "ba6d0172-19fe-62fa-4ebf-000000000007",
                    "playbook": "/home/tdubiel/code/juniper-backup/juniper_backup.yml",
                    "playbook_uuid": "9356ef18-3188-4ede-9e6d-4b16bf8a09e6",
                    "remote_addr": "18.220.10.18",
                    "res": {
                        "_ansible_no_log": false,
                        "backup_path": "/tmp/backups/18.220.10.18_config.2023-05-15@17:09:47",
                        "changed": true,
                        "date": "2023-05-15",
                        "filename": "18.220.10.18_config.2023-05-15@17:09:47",
                        "invocation": {
                            "module_args": {
                                "backup": true,
                                "backup_options": {
                                    "backup_format": "set",
                                    "dir_path": "/tmp/backups",
                                    "filename": null
                                },
                                "check_commit": false,
                                "comment": "configured by junos_config",
                                "confirm": 0,
                                "confirm_commit": false,
                                "lines": null,
                                "replace": null,
                                "rollback": null,
                                "src": null,
                                "src_format": null,
                                "update": "merge",
                                "zeroize": false
                            }
                        },
                        "shortname": "/tmp/backups/18.220.10.18_config",
                        "time": "17:09:47"
                    },
                    "start": "2023-05-15T17:09:45.894412",
                    "task": "Backup Juniper Router Configuration",
                    "task_action": "junipernetworks.junos.junos_config",
                    "task_args": "",
                    "task_path": "/home/tdubiel/code/juniper-backup/juniper_backup.yml:8",
                    "task_uuid": "ba6d0172-19fe-62fa-4ebf-000000000009",
                    "uuid": "cf43d795-454e-4c0a-8bc9-496ccc9c60a5"
                },
                {
                    "__changed": false,
                    "__duration": "0s",
                    "__host": "backup_server",
                    "__number": 1,
                    "__result": "Skipped",
                    "__task": "Backup Juniper Router Configuration",
                    "__task_action": "junipernetworks.junos.junos_config",
                    "duration": 0.010968,
                    "end": "2023-05-15T17:09:45.911526",
                    "event_loop": null,
                    "host": "backup_server",
                    "play": "Simple Backup",
                    "play_pattern": "junos,backup_servers",
                    "play_uuid": "ba6d0172-19fe-62fa-4ebf-000000000007",
                    "playbook": "/home/tdubiel/code/juniper-backup/juniper_backup.yml",
                    "playbook_uuid": "9356ef18-3188-4ede-9e6d-4b16bf8a09e6",
                    "remote_addr": "backup_server",
                    "start": "2023-05-15T17:09:45.900558",
                    "task": "Backup Juniper Router Configuration",
                    "task_action": "junipernetworks.junos.junos_config",
                    "task_args": "",
                    "task_path": "/home/tdubiel/code/juniper-backup/juniper_backup.yml:8",
                    "task_uuid": "ba6d0172-19fe-62fa-4ebf-000000000009",
                    "uuid": "1fbfd2e6-3b1e-4e8f-9a32-677603dcadee"
                },
                {
                    "__changed": false,
                    "__duration": "0s",
                    "__host": "18.220.10.18",
                    "__number": 2,
                    "__result": "Skipped",
                    "__task": "Copy to Server",
                    "__task_action": "ansible.builtin.copy",
                    "duration": 0.012127,
                    "end": "2023-05-15T17:09:47.441070",
                    "event_loop": null,
                    "host": "18.220.10.18",
                    "play": "Simple Backup",
                    "play_pattern": "junos,backup_servers",
                    "play_uuid": "ba6d0172-19fe-62fa-4ebf-000000000007",
                    "playbook": "/home/tdubiel/code/juniper-backup/juniper_backup.yml",
                    "playbook_uuid": "9356ef18-3188-4ede-9e6d-4b16bf8a09e6",
                    "remote_addr": "18.220.10.18",
                    "start": "2023-05-15T17:09:47.428943",
                    "task": "Copy to Server",
                    "task_action": "ansible.builtin.copy",
                    "task_args": "",
                    "task_path": "/home/tdubiel/code/juniper-backup/juniper_backup.yml:15",
                    "task_uuid": "ba6d0172-19fe-62fa-4ebf-00000000000a",
                    "uuid": "6e1300bd-cd3c-40bd-9dea-1c13fe40205a"
                },
                {
                    "__changed": true,
                    "__duration": "4s",
                    "__host": "backup_server",
                    "__number": 3,
                    "__result": "Ok",
                    "__task": "Copy to Server",
                    "__task_action": "ansible.builtin.copy",
                    "duration": 3.892813,
                    "end": "2023-05-15T17:09:51.328668",
                    "event_loop": null,
                    "host": "backup_server",
                    "play": "Simple Backup",
                    "play_pattern": "junos,backup_servers",
                    "play_uuid": "ba6d0172-19fe-62fa-4ebf-000000000007",
                    "playbook": "/home/tdubiel/code/juniper-backup/juniper_backup.yml",
                    "playbook_uuid": "9356ef18-3188-4ede-9e6d-4b16bf8a09e6",
                    "remote_addr": "backup_server",
                    "res": {
                        "_ansible_no_log": false,
                        "ansible_facts": {
                            "discovered_interpreter_python": "/usr/libexec/platform-python"
                        },
                        "changed": true,
                        "checksum": "7ad39d619330b23450c6d729d83f3be4760f1e33",
                        "dest": "/home/ec2-user/Juniper_backups/18.220.10.18_config.2023-05-15@17:09:47",
                        "diff": [],
                        "gid": 1000,
                        "group": "ec2-user",
                        "invocation": {
                            "module_args": {
                                "_original_basename": "18.220.10.18_config.2023-05-15@17:09:47",
                                "attributes": null,
                                "backup": false,
                                "checksum": "7ad39d619330b23450c6d729d83f3be4760f1e33",
                                "content": null,
                                "dest": "/home/ec2-user/Juniper_backups/",
                                "directory_mode": null,
                                "follow": false,
                                "force": true,
                                "group": null,
                                "local_follow": null,
                                "mode": null,
                                "owner": null,
                                "remote_src": null,
                                "selevel": null,
                                "serole": null,
                                "setype": null,
                                "seuser": null,
                                "src": "/home/ec2-user/.ansible/tmp/ansible-tmp-1684170588.0401006-39-165075258248164/source",
                                "unsafe_writes": false,
                                "validate": null
                            }
                        },
                        "md5sum": "9687d5507a846c6609c1eabccadf8cbb",
                        "mode": "0664",
                        "owner": "ec2-user",
                        "secontext": "unconfined_u:object_r:user_home_t:s0",
                        "size": 1189,
                        "src": "/home/ec2-user/.ansible/tmp/ansible-tmp-1684170588.0401006-39-165075258248164/source",
                        "state": "file",
                        "uid": 1000
                    },
                    "start": "2023-05-15T17:09:47.435855",
                    "task": "Copy to Server",
                    "task_action": "ansible.builtin.copy",
                    "task_args": "",
                    "task_path": "/home/tdubiel/code/juniper-backup/juniper_backup.yml:15",
                    "task_uuid": "ba6d0172-19fe-62fa-4ebf-00000000000a",
                    "uuid": "8f6ab899-f4f9-4671-b13b-bfa1000e4eee"
                },
                {
                    "__changed": false,
                    "__duration": "0s",
                    "__host": "18.220.10.18",
                    "__number": 4,
                    "__result": "Skipped",
                    "__task": "print backup path/file",
                    "__task_action": "debug",
                    "duration": 0.010839,
                    "end": "2023-05-15T17:09:51.343861",
                    "event_loop": null,
                    "host": "18.220.10.18",
                    "play": "Simple Backup",
                    "play_pattern": "junos,backup_servers",
                    "play_uuid": "ba6d0172-19fe-62fa-4ebf-000000000007",
                    "playbook": "/home/tdubiel/code/juniper-backup/juniper_backup.yml",
                    "playbook_uuid": "9356ef18-3188-4ede-9e6d-4b16bf8a09e6",
                    "remote_addr": "18.220.10.18",
                    "start": "2023-05-15T17:09:51.333022",
                    "task": "print backup path/file",
                    "task_action": "debug",
                    "task_args": "",
                    "task_path": "/home/tdubiel/code/juniper-backup/juniper_backup.yml:22",
                    "task_uuid": "ba6d0172-19fe-62fa-4ebf-00000000000b",
                    "uuid": "f95a1041-f033-4845-aa92-a50a8348e7e5"
                },
                {
                    "__changed": false,
                    "__duration": "0s",
                    "__host": "backup_server",
                    "__number": 5,
                    "__result": "Ok",
                    "__task": "print backup path/file",
                    "__task_action": "debug",
                    "duration": 0.015986,
                    "end": "2023-05-15T17:09:51.354638",
                    "event_loop": null,
                    "host": "backup_server",
                    "play": "Simple Backup",
                    "play_pattern": "junos,backup_servers",
                    "play_uuid": "ba6d0172-19fe-62fa-4ebf-000000000007",
                    "playbook": "/home/tdubiel/code/juniper-backup/juniper_backup.yml",
                    "playbook_uuid": "9356ef18-3188-4ede-9e6d-4b16bf8a09e6",
                    "remote_addr": "backup_server",
                    "res": {
                        "_ansible_no_log": false,
                        "_ansible_verbose_always": true,
                        "backups['dest']": "/home/ec2-user/Juniper_backups/18.220.10.18_config.2023-05-15@17:09:47",
                        "changed": false
                    },
                    "start": "2023-05-15T17:09:51.338652",
                    "task": "print backup path/file",
                    "task_action": "debug",
                    "task_args": "",
                    "task_path": "/home/tdubiel/code/juniper-backup/juniper_backup.yml:22",
                    "task_uuid": "ba6d0172-19fe-62fa-4ebf-00000000000b",
                    "uuid": "e2756908-b424-41f0-9010-f6fc57e1b5fa"
                },
                {
                    "__changed": false,
                    "__duration": "0s",
                    "__host": "18.220.10.18",
                    "__number": 6,
                    "__result": "Skipped",
                    "__task": "Verify Juniper_backups directory",
                    "__task_action": "ansible.builtin.shell",
                    "duration": 0.010636,
                    "end": "2023-05-15T17:09:51.370493",
                    "event_loop": null,
                    "host": "18.220.10.18",
                    "play": "Simple Backup",
                    "play_pattern": "junos,backup_servers",
                    "play_uuid": "ba6d0172-19fe-62fa-4ebf-000000000007",
                    "playbook": "/home/tdubiel/code/juniper-backup/juniper_backup.yml",
                    "playbook_uuid": "9356ef18-3188-4ede-9e6d-4b16bf8a09e6",
                    "remote_addr": "18.220.10.18",
                    "start": "2023-05-15T17:09:51.359857",
                    "task": "Verify Juniper_backups directory",
                    "task_action": "ansible.builtin.shell",
                    "task_args": "",
                    "task_path": "/home/tdubiel/code/juniper-backup/juniper_backup.yml:27",
                    "task_uuid": "ba6d0172-19fe-62fa-4ebf-00000000000c",
                    "uuid": "572247c1-52a0-4540-915a-b56ab94fc90e"
                },
                {
                    "__changed": true,
                    "__duration": "1s",
                    "__host": "backup_server",
                    "__number": 7,
                    "__result": "Ok",
                    "__task": "Verify Juniper_backups directory",
                    "__task_action": "ansible.builtin.shell",
                    "duration": 1.35375,
                    "end": "2023-05-15T17:09:52.719815",
                    "event_loop": null,
                    "host": "backup_server",
                    "play": "Simple Backup",
                    "play_pattern": "junos,backup_servers",
                    "play_uuid": "ba6d0172-19fe-62fa-4ebf-000000000007",
                    "playbook": "/home/tdubiel/code/juniper-backup/juniper_backup.yml",
                    "playbook_uuid": "9356ef18-3188-4ede-9e6d-4b16bf8a09e6",
                    "remote_addr": "backup_server",
                    "res": {
                        "_ansible_no_log": false,
                        "changed": true,
                        "cmd": "ls -la",
                        "delta": "0:00:00.004516",
                        "end": "2023-05-15 17:09:52.565019",
                        "invocation": {
                            "module_args": {
                                "_raw_params": "ls -la",
                                "_uses_shell": true,
                                "argv": null,
                                "chdir": "/home/ec2-user/Juniper_backups/",
                                "creates": null,
                                "executable": null,
                                "removes": null,
                                "stdin": null,
                                "stdin_add_newline": true,
                                "strip_empty_ends": true,
                                "warn": false
                            }
                        },
                        "msg": "",
                        "rc": 0,
                        "start": "2023-05-15 17:09:52.560503",
                        "stderr": "",
                        "stderr_lines": [],
                        "stdout": "total 80\ndrwxrwxr-x.  2 ec2-user ec2-user 4096 May 15 17:09 .\ndrwx------. 18 ec2-user ec2-user 4096 May 15 16:39 ..\n-rw-rw-r--.  1 ec2-user ec2-user 1189 May 15 16:39 18.220.10.18_config.2023-05-15@16:39:17\n-rw-rw-r--.  1 ec2-user ec2-user 1189 May 15 16:44 18.220.10.18_config.2023-05-15@16:44:16\n-rw-rw-r--.  1 ec2-user ec2-user 1189 May 15 16:46 18.220.10.18_config.2023-05-15@16:46:00\n-rw-rw-r--.  1 ec2-user ec2-user 1189 May 15 16:47 18.220.10.18_config.2023-05-15@16:47:52\n-rw-rw-r--.  1 ec2-user ec2-user 1189 May 15 16:49 18.220.10.18_config.2023-05-15@16:49:25\n-rw-rw-r--.  1 ec2-user ec2-user 1189 May 15 16:51 18.220.10.18_config.2023-05-15@16:51:16\n-rw-rw-r--.  1 ec2-user ec2-user 1189 May 15 16:51 18.220.10.18_config.2023-05-15@16:51:32\n-rw-rw-r--.  1 ec2-user ec2-user 1189 May 15 16:54 18.220.10.18_config.2023-05-15@16:54:39\n-rw-rw-r--.  1 ec2-user ec2-user 1189 May 15 16:55 18.220.10.18_config.2023-05-15@16:55:47\n-rw-rw-r--.  1 ec2-user ec2-user 1189 May 15 16:56 18.220.10.18_config.2023-05-15@16:56:31\n-rw-rw-r--.  1 ec2-user ec2-user 1189 May 15 16:57 18.220.10.18_config.2023-05-15@16:57:26\n-rw-rw-r--.  1 ec2-user ec2-user 1189 May 15 16:58 18.220.10.18_config.2023-05-15@16:58:39\n-rw-rw-r--.  1 ec2-user ec2-user 1189 May 15 17:03 18.220.10.18_config.2023-05-15@17:03:15\n-rw-rw-r--.  1 ec2-user ec2-user 1189 May 15 17:04 18.220.10.18_config.2023-05-15@17:04:03\n-rw-rw-r--.  1 ec2-user ec2-user 1189 May 15 17:04 18.220.10.18_config.2023-05-15@17:04:35\n-rw-rw-r--.  1 ec2-user ec2-user 1189 May 15 17:07 18.220.10.18_config.2023-05-15@17:07:31\n-rw-rw-r--.  1 ec2-user ec2-user 1189 May 15 17:08 18.220.10.18_config.2023-05-15@17:08:55\n-rw-rw-r--.  1 ec2-user ec2-user 1189 May 15 17:09 18.220.10.18_config.2023-05-15@17:09:47",
                        "stdout_lines": [
                            "total 80",
                            "drwxrwxr-x.  2 ec2-user ec2-user 4096 May 15 17:09 .",
                            "drwx------. 18 ec2-user ec2-user 4096 May 15 16:39 ..",
                            "-rw-rw-r--.  1 ec2-user ec2-user 1189 May 15 16:39 18.220.10.18_config.2023-05-15@16:39:17",
                            "-rw-rw-r--.  1 ec2-user ec2-user 1189 May 15 16:44 18.220.10.18_config.2023-05-15@16:44:16",
                            "-rw-rw-r--.  1 ec2-user ec2-user 1189 May 15 16:46 18.220.10.18_config.2023-05-15@16:46:00",
                            "-rw-rw-r--.  1 ec2-user ec2-user 1189 May 15 16:47 18.220.10.18_config.2023-05-15@16:47:52",
                            "-rw-rw-r--.  1 ec2-user ec2-user 1189 May 15 16:49 18.220.10.18_config.2023-05-15@16:49:25",
                            "-rw-rw-r--.  1 ec2-user ec2-user 1189 May 15 16:51 18.220.10.18_config.2023-05-15@16:51:16",
                            "-rw-rw-r--.  1 ec2-user ec2-user 1189 May 15 16:51 18.220.10.18_config.2023-05-15@16:51:32",
                            "-rw-rw-r--.  1 ec2-user ec2-user 1189 May 15 16:54 18.220.10.18_config.2023-05-15@16:54:39",
                            "-rw-rw-r--.  1 ec2-user ec2-user 1189 May 15 16:55 18.220.10.18_config.2023-05-15@16:55:47",
                            "-rw-rw-r--.  1 ec2-user ec2-user 1189 May 15 16:56 18.220.10.18_config.2023-05-15@16:56:31",
                            "-rw-rw-r--.  1 ec2-user ec2-user 1189 May 15 16:57 18.220.10.18_config.2023-05-15@16:57:26",
                            "-rw-rw-r--.  1 ec2-user ec2-user 1189 May 15 16:58 18.220.10.18_config.2023-05-15@16:58:39",
                            "-rw-rw-r--.  1 ec2-user ec2-user 1189 May 15 17:03 18.220.10.18_config.2023-05-15@17:03:15",
                            "-rw-rw-r--.  1 ec2-user ec2-user 1189 May 15 17:04 18.220.10.18_config.2023-05-15@17:04:03",
                            "-rw-rw-r--.  1 ec2-user ec2-user 1189 May 15 17:04 18.220.10.18_config.2023-05-15@17:04:35",
                            "-rw-rw-r--.  1 ec2-user ec2-user 1189 May 15 17:07 18.220.10.18_config.2023-05-15@17:07:31",
                            "-rw-rw-r--.  1 ec2-user ec2-user 1189 May 15 17:08 18.220.10.18_config.2023-05-15@17:08:55",
                            "-rw-rw-r--.  1 ec2-user ec2-user 1189 May 15 17:09 18.220.10.18_config.2023-05-15@17:09:47"
                        ]
                    },
                    "start": "2023-05-15T17:09:51.366065",
                    "task": "Verify Juniper_backups directory",
                    "task_action": "ansible.builtin.shell",
                    "task_args": "",
                    "task_path": "/home/tdubiel/code/juniper-backup/juniper_backup.yml:27",
                    "task_uuid": "ba6d0172-19fe-62fa-4ebf-00000000000c",
                    "uuid": "96e1afcc-e760-40d1-bfc9-a50666211d69"
                }
            ],
            "uuid": "ba6d0172-19fe-62fa-4ebf-000000000007"
        }
    ],
    "settings_entries": {
        "ansible-navigator": {
            "ansible": {
                "cmdline": "-v",
                "config": {
                    "help": false
                },
                "doc": {
                    "help": false,
                    "plugin": {
                        "type": "module"
                    }
                },
                "inventory": {
                    "entries": [
                        "/home/tdubiel/code/juniper-backup/hosts.yml"
                    ],
                    "help": false
                },
                "playbook": {
                    "help": false,
                    "path": "/home/tdubiel/code/juniper-backup/juniper_backup.yml"
                }
            },
            "ansible-builder": {
                "help": false,
                "workdir": "/home/tdubiel/code/juniper-backup"
            },
            "app": "run",
            "collection-doc-cache-path": "/home/tdubiel/.cache/ansible-navigator/collection_doc_cache.db",
            "color": {
                "enable": true,
                "osc4": true
            },
            "editor": {
                "command": "/usr/bin/nano {filename}",
                "console": true
            },
            "exec": {
                "command": "/bin/bash",
                "shell": true
            },
            "execution-environment": {
                "container-engine": "podman",
                "enabled": true,
                "image": "registry.gitlab.com/tdubiel1/network-ee:latest",
                "pull": {
                    "policy": "tag"
                },
                "volume-mounts": [
                    {
                        "dest": "/home/tdubiel",
                        "src": "/home/tdubiel"
                    }
                ]
            },
            "images": {
                "details": [
                    "everything"
                ]
            },
            "logging": {
                "append": true,
                "file": "/home/tdubiel/code/juniper-backup/ansible-navigator.log",
                "level": "debug"
            },
            "mode": "stdout",
            "playbook-artifact": {
                "enable": true,
                "save-as": "artifacts/{playbook_name}-artifact-{time_stamp}.json"
            },
            "settings": {
                "effective": false,
                "sample": false,
                "schema": "json",
                "sources": false
            },
            "time-zone": "UTC"
        }
    },
    "settings_sources": {
        "ansible-navigator.ansible-builder.help": "Defaults",
        "ansible-navigator.ansible-builder.workdir": "Defaults",
        "ansible-navigator.ansible-lint.config": "Not set",
        "ansible-navigator.ansible-lint.lintables": "Not set",
        "ansible-navigator.ansible-runner.artifact-dir": "Not set",
        "ansible-navigator.ansible-runner.rotate-artifacts-count": "Not set",
        "ansible-navigator.ansible-runner.timeout": "Not set",
        "ansible-navigator.ansible.cmdline": "Command line",
        "ansible-navigator.ansible.config.help": "Defaults",
        "ansible-navigator.ansible.config.path": "Not set",
        "ansible-navigator.ansible.doc.help": "Defaults",
        "ansible-navigator.ansible.doc.plugin.name": "Not set",
        "ansible-navigator.ansible.doc.plugin.type": "Defaults",
        "ansible-navigator.ansible.inventory.entries": "Settings file",
        "ansible-navigator.ansible.inventory.help": "Defaults",
        "ansible-navigator.ansible.playbook.help": "Defaults",
        "ansible-navigator.ansible.playbook.path": "Command line",
        "ansible-navigator.app": "Command line",
        "ansible-navigator.collection-doc-cache-path": "Defaults",
        "ansible-navigator.color.enable": "Defaults",
        "ansible-navigator.color.osc4": "Defaults",
        "ansible-navigator.editor.command": "Defaults",
        "ansible-navigator.editor.console": "Defaults",
        "ansible-navigator.exec.command": "Defaults",
        "ansible-navigator.exec.shell": "Defaults",
        "ansible-navigator.execution-environment.container-engine": "Settings file",
        "ansible-navigator.execution-environment.container-options": "Not set",
        "ansible-navigator.execution-environment.enabled": "Settings file",
        "ansible-navigator.execution-environment.environment-variables.pass": "Not set",
        "ansible-navigator.execution-environment.environment-variables.set": "Not set",
        "ansible-navigator.execution-environment.image": "Settings file",
        "ansible-navigator.execution-environment.pull.arguments": "Not set",
        "ansible-navigator.execution-environment.pull.policy": "Defaults",
        "ansible-navigator.execution-environment.volume-mounts": "Settings file",
        "ansible-navigator.images.details": "Defaults",
        "ansible-navigator.inventory-columns": "Not set",
        "ansible-navigator.logging.append": "Defaults",
        "ansible-navigator.logging.file": "Defaults",
        "ansible-navigator.logging.level": "Settings file",
        "ansible-navigator.mode": "Command line",
        "ansible-navigator.playbook-artifact.enable": "Defaults",
        "ansible-navigator.playbook-artifact.replay": "Not set",
        "ansible-navigator.playbook-artifact.save-as": "Settings file",
        "ansible-navigator.settings.effective": "Defaults",
        "ansible-navigator.settings.sample": "Defaults",
        "ansible-navigator.settings.schema": "Defaults",
        "ansible-navigator.settings.sources": "Defaults",
        "ansible-navigator.time-zone": "Defaults",
        "settings_file_path": "/home/tdubiel/code/juniper-backup/ansible-navigator.yml",
        "settings_file_source": "Search path"
    },
    "status": "successful",
    "status_color": 10,
    "stdout": [
        "\u001b[0;34mNo config file found; using defaults\u001b[0m",
        "",
        "PLAY [Simple Backup] ***********************************************************",
        "",
        "TASK [Backup Juniper Router Configuration] *************************************",
        "\u001b[0;36mskipping: [backup_server] => {\"changed\": false, \"skip_reason\": \"Conditional result was False\"}\u001b[0m",
        "\u001b[0;33mchanged: [18.220.10.18] => {\"backup_path\": \"/tmp/backups/18.220.10.18_config.2023-05-15@17:09:47\", \"changed\": true, \"date\": \"2023-05-15\", \"filename\": \"18.220.10.18_config.2023-05-15@17:09:47\", \"shortname\": \"/tmp/backups/18.220.10.18_config\", \"time\": \"17:09:47\"}\u001b[0m",
        "",
        "TASK [Copy to Server] **********************************************************",
        "\u001b[0;36mskipping: [18.220.10.18] => {\"changed\": false, \"skip_reason\": \"Conditional result was False\"}\u001b[0m",
        "\u001b[0;33mchanged: [backup_server] => {\"ansible_facts\": {\"discovered_interpreter_python\": \"/usr/libexec/platform-python\"}, \"changed\": true, \"checksum\": \"7ad39d619330b23450c6d729d83f3be4760f1e33\", \"dest\": \"/home/ec2-user/Juniper_backups/18.220.10.18_config.2023-05-15@17:09:47\", \"gid\": 1000, \"group\": \"ec2-user\", \"md5sum\": \"9687d5507a846c6609c1eabccadf8cbb\", \"mode\": \"0664\", \"owner\": \"ec2-user\", \"secontext\": \"unconfined_u:object_r:user_home_t:s0\", \"size\": 1189, \"src\": \"/home/ec2-user/.ansible/tmp/ansible-tmp-1684170588.0401006-39-165075258248164/source\", \"state\": \"file\", \"uid\": 1000}\u001b[0m",
        "",
        "TASK [print backup path/file] **************************************************",
        "\u001b[0;36mskipping: [18.220.10.18] => {}\u001b[0m",
        "\u001b[0;32mok: [backup_server] => {\u001b[0m",
        "\u001b[0;32m    \"backups['dest']\": \"/home/ec2-user/Juniper_backups/18.220.10.18_config.2023-05-15@17:09:47\"\u001b[0m",
        "\u001b[0;32m}\u001b[0m",
        "",
        "TASK [Verify Juniper_backups directory] ****************************************",
        "\u001b[0;36mskipping: [18.220.10.18] => {\"changed\": false, \"skip_reason\": \"Conditional result was False\"}\u001b[0m",
        "\u001b[0;33mchanged: [backup_server] => {\"changed\": true, \"cmd\": \"ls -la\", \"delta\": \"0:00:00.004516\", \"end\": \"2023-05-15 17:09:52.565019\", \"msg\": \"\", \"rc\": 0, \"start\": \"2023-05-15 17:09:52.560503\", \"stderr\": \"\", \"stderr_lines\": [], \"stdout\": \"total 80\\ndrwxrwxr-x.  2 ec2-user ec2-user 4096 May 15 17:09 .\\ndrwx------. 18 ec2-user ec2-user 4096 May 15 16:39 ..\\n-rw-rw-r--.  1 ec2-user ec2-user 1189 May 15 16:39 18.220.10.18_config.2023-05-15@16:39:17\\n-rw-rw-r--.  1 ec2-user ec2-user 1189 May 15 16:44 18.220.10.18_config.2023-05-15@16:44:16\\n-rw-rw-r--.  1 ec2-user ec2-user 1189 May 15 16:46 18.220.10.18_config.2023-05-15@16:46:00\\n-rw-rw-r--.  1 ec2-user ec2-user 1189 May 15 16:47 18.220.10.18_config.2023-05-15@16:47:52\\n-rw-rw-r--.  1 ec2-user ec2-user 1189 May 15 16:49 18.220.10.18_config.2023-05-15@16:49:25\\n-rw-rw-r--.  1 ec2-user ec2-user 1189 May 15 16:51 18.220.10.18_config.2023-05-15@16:51:16\\n-rw-rw-r--.  1 ec2-user ec2-user 1189 May 15 16:51 18.220.10.18_config.2023-05-15@16:51:32\\n-rw-rw-r--.  1 ec2-user ec2-user 1189 May 15 16:54 18.220.10.18_config.2023-05-15@16:54:39\\n-rw-rw-r--.  1 ec2-user ec2-user 1189 May 15 16:55 18.220.10.18_config.2023-05-15@16:55:47\\n-rw-rw-r--.  1 ec2-user ec2-user 1189 May 15 16:56 18.220.10.18_config.2023-05-15@16:56:31\\n-rw-rw-r--.  1 ec2-user ec2-user 1189 May 15 16:57 18.220.10.18_config.2023-05-15@16:57:26\\n-rw-rw-r--.  1 ec2-user ec2-user 1189 May 15 16:58 18.220.10.18_config.2023-05-15@16:58:39\\n-rw-rw-r--.  1 ec2-user ec2-user 1189 May 15 17:03 18.220.10.18_config.2023-05-15@17:03:15\\n-rw-rw-r--.  1 ec2-user ec2-user 1189 May 15 17:04 18.220.10.18_config.2023-05-15@17:04:03\\n-rw-rw-r--.  1 ec2-user ec2-user 1189 May 15 17:04 18.220.10.18_config.2023-05-15@17:04:35\\n-rw-rw-r--.  1 ec2-user ec2-user 1189 May 15 17:07 18.220.10.18_config.2023-05-15@17:07:31\\n-rw-rw-r--.  1 ec2-user ec2-user 1189 May 15 17:08 18.220.10.18_config.2023-05-15@17:08:55\\n-rw-rw-r--.  1 ec2-user ec2-user 1189 May 15 17:09 18.220.10.18_config.2023-05-15@17:09:47\", \"stdout_lines\": [\"total 80\", \"drwxrwxr-x.  2 ec2-user ec2-user 4096 May 15 17:09 .\", \"drwx------. 18 ec2-user ec2-user 4096 May 15 16:39 ..\", \"-rw-rw-r--.  1 ec2-user ec2-user 1189 May 15 16:39 18.220.10.18_config.2023-05-15@16:39:17\", \"-rw-rw-r--.  1 ec2-user ec2-user 1189 May 15 16:44 18.220.10.18_config.2023-05-15@16:44:16\", \"-rw-rw-r--.  1 ec2-user ec2-user 1189 May 15 16:46 18.220.10.18_config.2023-05-15@16:46:00\", \"-rw-rw-r--.  1 ec2-user ec2-user 1189 May 15 16:47 18.220.10.18_config.2023-05-15@16:47:52\", \"-rw-rw-r--.  1 ec2-user ec2-user 1189 May 15 16:49 18.220.10.18_config.2023-05-15@16:49:25\", \"-rw-rw-r--.  1 ec2-user ec2-user 1189 May 15 16:51 18.220.10.18_config.2023-05-15@16:51:16\", \"-rw-rw-r--.  1 ec2-user ec2-user 1189 May 15 16:51 18.220.10.18_config.2023-05-15@16:51:32\", \"-rw-rw-r--.  1 ec2-user ec2-user 1189 May 15 16:54 18.220.10.18_config.2023-05-15@16:54:39\", \"-rw-rw-r--.  1 ec2-user ec2-user 1189 May 15 16:55 18.220.10.18_config.2023-05-15@16:55:47\", \"-rw-rw-r--.  1 ec2-user ec2-user 1189 May 15 16:56 18.220.10.18_config.2023-05-15@16:56:31\", \"-rw-rw-r--.  1 ec2-user ec2-user 1189 May 15 16:57 18.220.10.18_config.2023-05-15@16:57:26\", \"-rw-rw-r--.  1 ec2-user ec2-user 1189 May 15 16:58 18.220.10.18_config.2023-05-15@16:58:39\", \"-rw-rw-r--.  1 ec2-user ec2-user 1189 May 15 17:03 18.220.10.18_config.2023-05-15@17:03:15\", \"-rw-rw-r--.  1 ec2-user ec2-user 1189 May 15 17:04 18.220.10.18_config.2023-05-15@17:04:03\", \"-rw-rw-r--.  1 ec2-user ec2-user 1189 May 15 17:04 18.220.10.18_config.2023-05-15@17:04:35\", \"-rw-rw-r--.  1 ec2-user ec2-user 1189 May 15 17:07 18.220.10.18_config.2023-05-15@17:07:31\", \"-rw-rw-r--.  1 ec2-user ec2-user 1189 May 15 17:08 18.220.10.18_config.2023-05-15@17:08:55\", \"-rw-rw-r--.  1 ec2-user ec2-user 1189 May 15 17:09 18.220.10.18_config.2023-05-15@17:09:47\"]}\u001b[0m",
        "",
        "PLAY RECAP *********************************************************************",
        "\u001b[0;33m18.220.10.18\u001b[0m               : \u001b[0;32mok=1   \u001b[0m \u001b[0;33mchanged=1   \u001b[0m unreachable=0    failed=0    \u001b[0;36mskipped=3   \u001b[0m rescued=0    ignored=0   ",
        "\u001b[0;33mbackup_server\u001b[0m              : \u001b[0;32mok=3   \u001b[0m \u001b[0;33mchanged=2   \u001b[0m unreachable=0    failed=0    \u001b[0;36mskipped=1   \u001b[0m rescued=0    ignored=0   "
    ],
    "version": "2.0.0"
}
