{
    "plays": [
        {
            "__play_name": "Remove existing Backup Files from Backup Server",
            "name": "Remove existing Backup Files from Backup Server",
            "pattern": "backup_servers",
            "play": "Remove existing Backup Files from Backup Server",
            "play_pattern": "backup_servers",
            "play_uuid": "1eb6c579-1543-356f-c3b1-000000000007",
            "playbook": "/home/tdubiel/code/juniper-backup/remove_backups.yml",
            "playbook_uuid": "4df99f56-6475-468d-8ba4-762d34cf491e",
            "tasks": [
                {
                    "__changed": true,
                    "__duration": "2s",
                    "__host": "backup_server",
                    "__number": 0,
                    "__result": "Ok",
                    "__task": "Remove Backups from Juniper_backups directory on backup_server",
                    "__task_action": "ansible.builtin.shell",
                    "duration": 2.212635,
                    "end": "2023-05-15T18:15:26.302690",
                    "event_loop": null,
                    "host": "backup_server",
                    "play": "Remove existing Backup Files from Backup Server",
                    "play_pattern": "backup_servers",
                    "play_uuid": "1eb6c579-1543-356f-c3b1-000000000007",
                    "playbook": "/home/tdubiel/code/juniper-backup/remove_backups.yml",
                    "playbook_uuid": "4df99f56-6475-468d-8ba4-762d34cf491e",
                    "remote_addr": "backup_server",
                    "res": {
                        "_ansible_no_log": false,
                        "ansible_facts": {
                            "discovered_interpreter_python": "/usr/libexec/platform-python"
                        },
                        "changed": true,
                        "cmd": "rm 18.220.10.18*",
                        "delta": "0:00:00.003963",
                        "end": "2023-05-15 18:15:26.143943",
                        "invocation": {
                            "module_args": {
                                "_raw_params": "rm 18.220.10.18*",
                                "_uses_shell": true,
                                "argv": null,
                                "chdir": "/home/ec2-user/Juniper_backups/",
                                "creates": null,
                                "executable": null,
                                "removes": null,
                                "stdin": null,
                                "stdin_add_newline": true,
                                "strip_empty_ends": true,
                                "warn": false
                            }
                        },
                        "msg": "",
                        "rc": 0,
                        "start": "2023-05-15 18:15:26.139980",
                        "stderr": "",
                        "stderr_lines": [],
                        "stdout": "",
                        "stdout_lines": []
                    },
                    "start": "2023-05-15T18:15:24.090055",
                    "task": "Remove Backups from Juniper_backups directory on backup_server",
                    "task_action": "ansible.builtin.shell",
                    "task_args": "",
                    "task_path": "/home/tdubiel/code/juniper-backup/remove_backups.yml:8",
                    "task_uuid": "1eb6c579-1543-356f-c3b1-000000000009",
                    "uuid": "a9f035a9-99f2-4871-b666-3c47020719b8"
                },
                {
                    "__changed": true,
                    "__duration": "1s",
                    "__host": "backup_server",
                    "__number": 1,
                    "__result": "Ok",
                    "__task": "Verify Juniper_backups directory is empty",
                    "__task_action": "ansible.builtin.shell",
                    "duration": 1.275767,
                    "end": "2023-05-15T18:15:27.582608",
                    "event_loop": null,
                    "host": "backup_server",
                    "play": "Remove existing Backup Files from Backup Server",
                    "play_pattern": "backup_servers",
                    "play_uuid": "1eb6c579-1543-356f-c3b1-000000000007",
                    "playbook": "/home/tdubiel/code/juniper-backup/remove_backups.yml",
                    "playbook_uuid": "4df99f56-6475-468d-8ba4-762d34cf491e",
                    "remote_addr": "backup_server",
                    "res": {
                        "_ansible_no_log": false,
                        "changed": true,
                        "cmd": "ls -la",
                        "delta": "0:00:00.004661",
                        "end": "2023-05-15 18:15:27.423810",
                        "invocation": {
                            "module_args": {
                                "_raw_params": "ls -la",
                                "_uses_shell": true,
                                "argv": null,
                                "chdir": "/home/ec2-user/Juniper_backups/",
                                "creates": null,
                                "executable": null,
                                "removes": null,
                                "stdin": null,
                                "stdin_add_newline": true,
                                "strip_empty_ends": true,
                                "warn": false
                            }
                        },
                        "msg": "",
                        "rc": 0,
                        "start": "2023-05-15 18:15:27.419149",
                        "stderr": "",
                        "stderr_lines": [],
                        "stdout": "total 4\ndrwxrwxr-x.  2 ec2-user ec2-user    6 May 15 18:15 .\ndrwx------. 18 ec2-user ec2-user 4096 May 15 16:39 ..",
                        "stdout_lines": [
                            "total 4",
                            "drwxrwxr-x.  2 ec2-user ec2-user    6 May 15 18:15 .",
                            "drwx------. 18 ec2-user ec2-user 4096 May 15 16:39 .."
                        ]
                    },
                    "start": "2023-05-15T18:15:26.306841",
                    "task": "Verify Juniper_backups directory is empty",
                    "task_action": "ansible.builtin.shell",
                    "task_args": "",
                    "task_path": "/home/tdubiel/code/juniper-backup/remove_backups.yml:14",
                    "task_uuid": "1eb6c579-1543-356f-c3b1-00000000000a",
                    "uuid": "2245dd3a-662c-4ca9-a03a-5fde9f97fbba"
                },
                {
                    "__changed": false,
                    "__duration": "0s",
                    "__host": "backup_server",
                    "__number": 2,
                    "__result": "Ok",
                    "__task": "Print the current Juniper_backups",
                    "__task_action": "ansible.builtin.debug",
                    "duration": 0.012929,
                    "end": "2023-05-15T18:15:27.599554",
                    "event_loop": null,
                    "host": "backup_server",
                    "play": "Remove existing Backup Files from Backup Server",
                    "play_pattern": "backup_servers",
                    "play_uuid": "1eb6c579-1543-356f-c3b1-000000000007",
                    "playbook": "/home/tdubiel/code/juniper-backup/remove_backups.yml",
                    "playbook_uuid": "4df99f56-6475-468d-8ba4-762d34cf491e",
                    "remote_addr": "backup_server",
                    "res": {
                        "_ansible_no_log": false,
                        "_ansible_verbose_always": true,
                        "backup_files.stdout_lines": [
                            "total 4",
                            "drwxrwxr-x.  2 ec2-user ec2-user    6 May 15 18:15 .",
                            "drwx------. 18 ec2-user ec2-user 4096 May 15 16:39 .."
                        ],
                        "changed": false
                    },
                    "start": "2023-05-15T18:15:27.586625",
                    "task": "Print the current Juniper_backups",
                    "task_action": "ansible.builtin.debug",
                    "task_args": "",
                    "task_path": "/home/tdubiel/code/juniper-backup/remove_backups.yml:21",
                    "task_uuid": "1eb6c579-1543-356f-c3b1-00000000000b",
                    "uuid": "c95d94ee-9d72-4651-948f-5148a1e55f29"
                }
            ],
            "uuid": "1eb6c579-1543-356f-c3b1-000000000007"
        }
    ],
    "settings_entries": {
        "ansible-navigator": {
            "ansible": {
                "config": {
                    "help": false
                },
                "doc": {
                    "help": false,
                    "plugin": {
                        "type": "module"
                    }
                },
                "inventory": {
                    "entries": [
                        "/home/tdubiel/code/juniper-backup/hosts.yml"
                    ],
                    "help": false
                },
                "playbook": {
                    "help": false,
                    "path": "/home/tdubiel/code/juniper-backup/remove_backups.yml"
                }
            },
            "ansible-builder": {
                "help": false,
                "workdir": "/home/tdubiel/code/juniper-backup"
            },
            "app": "run",
            "collection-doc-cache-path": "/home/tdubiel/.cache/ansible-navigator/collection_doc_cache.db",
            "color": {
                "enable": true,
                "osc4": true
            },
            "editor": {
                "command": "/usr/bin/nano {filename}",
                "console": true
            },
            "exec": {
                "command": "/bin/bash",
                "shell": true
            },
            "execution-environment": {
                "container-engine": "podman",
                "enabled": true,
                "image": "registry.gitlab.com/tdubiel1/network-ee:latest",
                "pull": {
                    "policy": "tag"
                },
                "volume-mounts": [
                    {
                        "dest": "/home/tdubiel",
                        "src": "/home/tdubiel"
                    }
                ]
            },
            "images": {
                "details": [
                    "everything"
                ]
            },
            "logging": {
                "append": true,
                "file": "/home/tdubiel/code/juniper-backup/ansible-navigator.log",
                "level": "debug"
            },
            "mode": "stdout",
            "playbook-artifact": {
                "enable": true,
                "save-as": "artifacts/{playbook_name}-artifact-{time_stamp}.json"
            },
            "settings": {
                "effective": false,
                "sample": false,
                "schema": "json",
                "sources": false
            },
            "time-zone": "UTC"
        }
    },
    "settings_sources": {
        "ansible-navigator.ansible-builder.help": "Defaults",
        "ansible-navigator.ansible-builder.workdir": "Defaults",
        "ansible-navigator.ansible-lint.config": "Not set",
        "ansible-navigator.ansible-lint.lintables": "Not set",
        "ansible-navigator.ansible-runner.artifact-dir": "Not set",
        "ansible-navigator.ansible-runner.rotate-artifacts-count": "Not set",
        "ansible-navigator.ansible-runner.timeout": "Not set",
        "ansible-navigator.ansible.cmdline": "Not set",
        "ansible-navigator.ansible.config.help": "Defaults",
        "ansible-navigator.ansible.config.path": "Not set",
        "ansible-navigator.ansible.doc.help": "Defaults",
        "ansible-navigator.ansible.doc.plugin.name": "Not set",
        "ansible-navigator.ansible.doc.plugin.type": "Defaults",
        "ansible-navigator.ansible.inventory.entries": "Settings file",
        "ansible-navigator.ansible.inventory.help": "Defaults",
        "ansible-navigator.ansible.playbook.help": "Defaults",
        "ansible-navigator.ansible.playbook.path": "Command line",
        "ansible-navigator.app": "Command line",
        "ansible-navigator.collection-doc-cache-path": "Defaults",
        "ansible-navigator.color.enable": "Defaults",
        "ansible-navigator.color.osc4": "Defaults",
        "ansible-navigator.editor.command": "Defaults",
        "ansible-navigator.editor.console": "Defaults",
        "ansible-navigator.exec.command": "Defaults",
        "ansible-navigator.exec.shell": "Defaults",
        "ansible-navigator.execution-environment.container-engine": "Settings file",
        "ansible-navigator.execution-environment.container-options": "Not set",
        "ansible-navigator.execution-environment.enabled": "Settings file",
        "ansible-navigator.execution-environment.environment-variables.pass": "Not set",
        "ansible-navigator.execution-environment.environment-variables.set": "Not set",
        "ansible-navigator.execution-environment.image": "Settings file",
        "ansible-navigator.execution-environment.pull.arguments": "Not set",
        "ansible-navigator.execution-environment.pull.policy": "Defaults",
        "ansible-navigator.execution-environment.volume-mounts": "Settings file",
        "ansible-navigator.images.details": "Defaults",
        "ansible-navigator.inventory-columns": "Not set",
        "ansible-navigator.logging.append": "Defaults",
        "ansible-navigator.logging.file": "Defaults",
        "ansible-navigator.logging.level": "Settings file",
        "ansible-navigator.mode": "Command line",
        "ansible-navigator.playbook-artifact.enable": "Defaults",
        "ansible-navigator.playbook-artifact.replay": "Not set",
        "ansible-navigator.playbook-artifact.save-as": "Settings file",
        "ansible-navigator.settings.effective": "Defaults",
        "ansible-navigator.settings.sample": "Defaults",
        "ansible-navigator.settings.schema": "Defaults",
        "ansible-navigator.settings.sources": "Defaults",
        "ansible-navigator.time-zone": "Defaults",
        "settings_file_path": "/home/tdubiel/code/juniper-backup/ansible-navigator.yml",
        "settings_file_source": "Search path"
    },
    "status": "successful",
    "status_color": 10,
    "stdout": [
        "",
        "PLAY [Remove existing Backup Files from Backup Server] *************************",
        "",
        "TASK [Remove Backups from Juniper_backups directory on backup_server] **********",
        "\u001b[0;33mchanged: [backup_server]\u001b[0m",
        "",
        "TASK [Verify Juniper_backups directory is empty] *******************************",
        "\u001b[0;33mchanged: [backup_server]\u001b[0m",
        "",
        "TASK [Print the current Juniper_backups] ***************************************",
        "\u001b[0;32mok: [backup_server] => {\u001b[0m",
        "\u001b[0;32m    \"backup_files.stdout_lines\": [\u001b[0m",
        "\u001b[0;32m        \"total 4\",\u001b[0m",
        "\u001b[0;32m        \"drwxrwxr-x.  2 ec2-user ec2-user    6 May 15 18:15 .\",\u001b[0m",
        "\u001b[0;32m        \"drwx------. 18 ec2-user ec2-user 4096 May 15 16:39 ..\"\u001b[0m",
        "\u001b[0;32m    ]\u001b[0m",
        "\u001b[0;32m}\u001b[0m",
        "",
        "PLAY RECAP *********************************************************************",
        "\u001b[0;33mbackup_server\u001b[0m              : \u001b[0;32mok=3   \u001b[0m \u001b[0;33mchanged=2   \u001b[0m unreachable=0    failed=0    skipped=0    rescued=0    ignored=0   "
    ],
    "version": "2.0.0"
}
